%YAML 1.1
%TAG !u! tag:unity3d.com,2011:
--- !u!1045 &1
EditorBuildSettings:
  m_ObjectHideFlags: 0
  serializedVersion: 2
  m_Scenes:
  - enabled: 1
    path: Assets/Resources/Scene/SceneMenu.unity
  - enabled: 1
    path: Assets/Resources/Scene/SceneGame.unity
  - enabled: 1
    path: Assets/Resources/Scene/SceneBeginning.unity
  - enabled: 1
    path: Assets/Resources/Scene/SceneEnd.unity
